epoch,capsnet_accuracy,capsnet_loss,decoder_loss,loss,val_capsnet_accuracy,val_capsnet_loss,val_decoder_loss,val_loss
0,0.0140625,0.8094303,1.270171,1.307337962090969,0.014999999664723873,0.8094310164451599,1.2690016031265259,1.3068794831633568
1,0.0140625,0.8094303,1.2701522,1.3073306363075972,0.014999999664723873,0.8094310164451599,1.2689838409423828,1.3068725690245628
2,0.0140625,0.8094303,1.2701355,1.3073240406811237,0.014999999664723873,0.8094310164451599,1.2689679861068726,1.3068663105368614
3,0.0140625,0.8094303,1.2701205,1.3073181100189686,0.014999999664723873,0.8094310164451599,1.2689536809921265,1.306860700249672
4,0.0140625,0.8094303,1.2701068,1.3073127809911966,0.014999999664723873,0.8094310164451599,1.2689406871795654,1.3068556785583496
5,0.0140625,0.8094303,1.2700945,1.3073079828172922,0.014999999664723873,0.8094310164451599,1.2689292430877686,1.3068511337041855
6,0.0140625,0.8094303,1.2700837,1.3073036577552557,0.014999999664723873,0.8094310164451599,1.2689186334609985,1.3068470656871796
7,0.0140625,0.8094303,1.2700737,1.3072997629642487,0.014999999664723873,0.8094310164451599,1.2689093351364136,1.306843362748623
8,0.0140625,0.8094303,1.2700647,1.3072962667793036,0.014999999664723873,0.8094310164451599,1.2689008712768555,1.3068400770425797
9,0.0140625,0.8094303,1.2700567,1.3072931207716465,0.014999999664723873,0.8094310164451599,1.2688933610916138,1.3068370968103409
10,0.0140625,0.8094303,1.2700496,1.307290280237794,0.014999999664723873,0.8094310164451599,1.2688865661621094,1.3068344220519066
11,0.0140625,0.8094303,1.2700429,1.3072877451777458,0.014999999664723873,0.8094310164451599,1.2688803672790527,1.3068320006132126
12,0.0140625,0.8094303,1.2700372,1.3072854429483414,0.014999999664723873,0.8094310164451599,1.2688747644424438,1.306829810142517
13,0.0140625,0.8094303,1.2700319,1.307283366099,0.014999999664723873,0.8094310164451599,1.2688698768615723,1.3068278580904007
14,0.0140625,0.8094303,1.2700274,1.3072815146297216,0.014999999664723873,0.8094310164451599,1.2688653469085693,1.3068261221051216
15,0.0140625,0.8094303,1.2700229,1.307279834523797,0.014999999664723873,0.8094310164451599,1.2688612937927246,1.3068245202302933
16,0.0140625,0.8094303,1.2700188,1.3072783332318068,0.014999999664723873,0.8094310164451599,1.268857717514038,1.3068231269717216
17,0.0140625,0.8094303,1.2700156,1.3072769679129124,0.014999999664723873,0.8094310164451599,1.2688544988632202,1.3068218231201172
18,0.0140625,0.8094303,1.2700121,1.30727575160563,0.014999999664723873,0.8094310164451599,1.2688515186309814,1.3068206682801247
19,0.0140625,0.8094303,1.2700098,1.3072746507823467,0.014999999664723873,0.8094310164451599,1.2688488960266113,1.3068196177482605
20,0.0140625,0.8094303,1.2700071,1.3072736617177725,0.014999999664723873,0.8094310164451599,1.2688465118408203,1.3068186938762665
21,0.0140625,0.8094303,1.2700047,1.307272769510746,0.014999999664723873,0.8094310164451599,1.2688443660736084,1.3068178445100784
22,0.0140625,0.8094303,1.2700027,1.3072719797492027,0.014999999664723873,0.8094310164451599,1.2688424587249756,1.3068170994520187
23,0.0140625,0.8094303,1.2700008,1.3072712533175945,0.014999999664723873,0.8094310164451599,1.2688407897949219,1.3068164065480232
24,0.0140625,0.8094303,1.2699995,1.3072706051170826,0.014999999664723873,0.8094310164451599,1.2688392400741577,1.3068158105015755
25,0.0140625,0.8094303,1.2699978,1.3072700183838606,0.014999999664723873,0.8094310164451599,1.2688376903533936,1.3068152517080307
26,0.0140625,0.8094303,1.2699965,1.3072694912552834,0.014999999664723873,0.8094310164451599,1.2688363790512085,1.3068147525191307
27,0.0140625,0.8094303,1.2699949,1.3072690311819315,0.014999999664723873,0.8094310164451599,1.2688353061676025,1.3068142980337143
28,0.0140625,0.8094303,1.2699943,1.3072685860097408,0.014999999664723873,0.8094310164451599,1.2688342332839966,1.306813895702362
29,0.0140625,0.8094303,1.2699933,1.3072682246565819,0.014999999664723873,0.8094310164451599,1.2688333988189697,1.3068135529756546
30,0.0140625,0.8094303,1.2699921,1.3072678670287132,0.014999999664723873,0.8094310164451599,1.2688325643539429,1.3068132251501083
31,0.0140625,0.8094303,1.2699915,1.3072675578296185,0.014999999664723873,0.8094310164451599,1.268831729888916,1.3068129420280457
32,0.0140625,0.8094303,1.2699908,1.307267278432846,0.014999999664723873,0.8094310164451599,1.2688311338424683,1.3068126663565636
33,0.0140625,0.8094303,1.2699898,1.3072670325636864,0.014999999664723873,0.8094310164451599,1.268830418586731,1.306812435388565
34,0.0140625,0.8094303,1.2699894,1.3072667997330427,0.014999999664723873,0.8094310164451599,1.2688299417495728,1.3068122267723083
35,0.0140625,0.8094303,1.2699894,1.3072665855288506,0.014999999664723873,0.8094310164451599,1.268829584121704,1.3068120405077934
36,0.0140625,0.8094303,1.2699888,1.3072664178907871,0.014999999664723873,0.8094310164451599,1.2688288688659668,1.306811846792698
37,0.0140625,0.8094303,1.2699882,1.307266240939498,0.014999999664723873,0.8094310164451599,1.2688285112380981,1.3068117052316666
38,0.0140625,0.8094303,1.2699876,1.3072660975158215,0.014999999664723873,0.8094310164451599,1.268828272819519,1.3068115562200546
39,0.0140625,0.8094303,1.2699873,1.3072659708559513,0.014999999664723873,0.8094310164451599,1.2688279151916504,1.3068114444613457
40,0.0140625,0.8094303,1.269987,1.307265842333436,0.014999999664723873,0.8094310164451599,1.2688276767730713,1.306811310350895
41,0.0140625,0.8094303,1.2699869,1.307265743613243,0.014999999664723873,0.8094310164451599,1.2688274383544922,1.3068112432956696
42,0.0140625,0.8094303,1.2699865,1.3072656393051147,0.014999999664723873,0.8094310164451599,1.268827199935913,1.3068111166357994
43,0.0140625,0.8094303,1.2699864,1.3072655536234379,0.014999999664723873,0.8094310164451599,1.268826961517334,1.3068110421299934
44,0.0140625,0.8094303,1.2699863,1.3072654698044062,0.014999999664723873,0.8094310164451599,1.2688266038894653,1.3068109676241875
45,0.0140625,0.8094303,1.2699858,1.3072653990238905,0.014999999664723873,0.8094310164451599,1.2688266038894653,1.306810885667801
46,0.0140625,0.8094303,1.2699858,1.3072653412818909,0.014999999664723873,0.8094310164451599,1.2688263654708862,1.3068108335137367
47,0.0140625,0.8094303,1.2699857,1.3072652742266655,0.014999999664723873,0.8094310164451599,1.2688262462615967,1.306810773909092
48,0.0140625,0.8094303,1.2699857,1.3072652332484722,0.014999999664723873,0.8094310164451599,1.2688261270523071,1.3068107441067696
49,0.0140625,0.8094303,1.2699853,1.3072651848196983,0.014999999664723873,0.8094310164451599,1.2688260078430176,1.3068107143044472
50,0.0140625,0.8094303,1.2699852,1.307265143841505,0.014999999664723873,0.8094310164451599,1.2688260078430176,1.3068106546998024
51,0.0140625,0.8094303,1.2699852,1.3072651121765375,0.014999999664723873,0.8094310164451599,1.268825888633728,1.3068106099963188
52,0.0140625,0.8094303,1.2699852,1.3072650656104088,0.014999999664723873,0.8094310164451599,1.268825888633728,1.3068105727434158
53,0.0140625,0.8094303,1.269985,1.3072650451213121,0.014999999664723873,0.8094310164451599,1.2688257694244385,1.306810550391674
54,0.0140625,0.8094303,1.269985,1.307265017181635,0.014999999664723873,0.8094310164451599,1.2688257694244385,1.306810550391674
55,0.0140625,0.8094303,1.2699851,1.3072649911046028,0.014999999664723873,0.8094310164451599,1.2688255310058594,1.3068105280399323
56,0.0140625,0.8094303,1.269985,1.307264979928732,0.014999999664723873,0.8094310164451599,1.2688254117965698,1.3068104833364487
57,0.0140625,0.8094303,1.269985,1.3072649352252483,0.014999999664723873,0.8094310164451599,1.2688254117965698,1.3068104535341263
58,0.0140625,0.8094303,1.2699848,1.307264942675829,0.014999999664723873,0.8094310164451599,1.2688254117965698,1.3068104460835457
59,0.0140625,0.8094303,1.2699847,1.307264905422926,0.014999999664723873,0.8094310164451599,1.2688254117965698,1.306810438632965
60,0.0140625,0.8094303,1.269985,1.3072648998349905,0.014999999664723873,0.8094310164451599,1.2688254117965698,1.306810423731804
61,0.0140625,0.8094303,1.2699848,1.3072648849338293,0.014999999664723873,0.8094310164451599,1.2688252925872803,1.3068104088306427
62,0.0140625,0.8094303,1.2699848,1.3072648663073778,0.014999999664723873,0.8094310164451599,1.2688252925872803,1.3068103939294815
63,0.0140625,0.8094303,1.2699847,1.307264855131507,0.014999999664723873,0.8094310164451599,1.2688252925872803,1.3068103715777397
64,0.0140625,0.8094303,1.2699848,1.307264855131507,0.014999999664723873,0.8094310164451599,1.2688252925872803,1.3068103641271591
65,0.0140625,0.8094303,1.2699846,1.3072648458182812,0.014999999664723873,0.8094310164451599,1.2688252925872803,1.3068103417754173
66,0.0140625,0.8094303,1.2699846,1.3072648383677006,0.014999999664723873,0.8094310164451599,1.2688250541687012,1.3068103343248367
67,0.0140625,0.8094303,1.2699846,1.3072648271918297,0.014999999664723873,0.8094310164451599,1.2688250541687012,1.3068103194236755
68,0.0140625,0.8094303,1.2699846,1.3072648253291845,0.014999999664723873,0.8094310164451599,1.2688250541687012,1.3068103194236755
69,0.0140625,0.8094303,1.2699846,1.307264817878604,0.014999999664723873,0.8094310164451599,1.2688250541687012,1.3068103194236755
70,0.0140625,0.8094303,1.2699844,1.3072648085653782,0.014999999664723873,0.8094310164451599,1.2688250541687012,1.3068103194236755
71,0.0140625,0.8094303,1.2699845,1.3072648141533136,0.014999999664723873,0.8094310164451599,1.2688250541687012,1.3068103194236755
72,0.0140625,0.8094303,1.2699844,1.3072648085653782,0.014999999664723873,0.8094310164451599,1.2688250541687012,1.306810311973095
73,0.0140625,0.8094303,1.2699846,1.3072647955268621,0.014999999664723873,0.8094310164451599,1.2688250541687012,1.306810311973095
74,0.0140625,0.8094303,1.2699844,1.3072647955268621,0.014999999664723873,0.8094310164451599,1.2688250541687012,1.3068103194236755
75,0.0140625,0.8094303,1.2699844,1.3072647992521524,0.014999999664723873,0.8094310164451599,1.2688250541687012,1.3068103194236755
76,0.0140625,0.8094303,1.2699846,1.3072647918015718,0.014999999664723873,0.8094310164451599,1.2688250541687012,1.3068103194236755
77,0.0140625,0.8094303,1.2699842,1.3072647973895073,0.014999999664723873,0.8094310164451599,1.2688250541687012,1.306810311973095
78,0.0140625,0.8094303,1.2699842,1.3072647880762815,0.014999999664723873,0.8094310164451599,1.2688250541687012,1.3068103045225143
79,0.0140625,0.8094303,1.2699845,1.307264780625701,0.014999999664723873,0.8094310164451599,1.2688250541687012,1.306810311973095
80,0.0140625,0.8094303,1.2699844,1.3072647880762815,0.014999999664723873,0.8094310164451599,1.2688250541687012,1.306810311973095
81,0.0140625,0.8094303,1.2699841,1.307264782488346,0.014999999664723873,0.8094310164451599,1.2688250541687012,1.3068103045225143
82,0.0140625,0.8094303,1.2699846,1.3072647899389267,0.014999999664723873,0.8094310164451599,1.2688250541687012,1.3068103045225143
83,0.0140625,0.8094303,1.2699842,1.3072647731751204,0.014999999664723873,0.8094310164451599,1.2688250541687012,1.3068103045225143
84,0.0140625,0.8094303,1.2699844,1.3072647787630558,0.014999999664723873,0.8094310164451599,1.2688250541687012,1.3068103045225143
85,0.0140625,0.8094303,1.2699846,1.3072647750377655,0.014999999664723873,0.8094310164451599,1.2688250541687012,1.3068102970719337
86,0.0140625,0.8094303,1.2699846,1.3072647769004107,0.014999999664723873,0.8094310164451599,1.2688250541687012,1.3068102970719337
87,0.0140625,0.8094303,1.2699844,1.307264767587185,0.014999999664723873,0.8094310164451599,1.2688250541687012,1.3068102970719337
88,0.0140625,0.8094303,1.2699846,1.3072647619992495,0.014999999664723873,0.8094310164451599,1.2688250541687012,1.3068102970719337
89,0.0140625,0.8094303,1.2699844,1.3072647787630558,0.014999999664723873,0.8094310164451599,1.2688250541687012,1.3068102970719337
90,0.0140625,0.8094303,1.2699846,1.307264767587185,0.014999999664723873,0.8094310164451599,1.2688250541687012,1.3068103045225143
91,0.0140625,0.8094303,1.2699841,1.3072647750377655,0.014999999664723873,0.8094310164451599,1.2688250541687012,1.3068103045225143
92,0.0140625,0.8094303,1.2699842,1.3072647713124752,0.014999999664723873,0.8094310164451599,1.2688250541687012,1.3068103045225143
93,0.0140625,0.8094303,1.2699842,1.307264767587185,0.014999999664723873,0.8094310164451599,1.2688250541687012,1.3068103045225143
94,0.0140625,0.8094303,1.2699844,1.3072647657245398,0.014999999664723873,0.8094310164451599,1.2688250541687012,1.3068103045225143
95,0.0140625,0.8094303,1.2699844,1.3072647862136364,0.014999999664723873,0.8094310164451599,1.2688250541687012,1.3068102970719337
96,0.0140625,0.8094303,1.2699846,1.30726476944983,0.014999999664723873,0.8094310164451599,1.2688250541687012,1.3068102970719337
97,0.0140625,0.8094303,1.2699844,1.3072647657245398,0.014999999664723873,0.8094310164451599,1.2688250541687012,1.3068102970719337
98,0.0140625,0.8094303,1.2699845,1.307264767587185,0.014999999664723873,0.8094310164451599,1.2688250541687012,1.3068102970719337
