epoch,capsnet_accuracy,capsnet_loss,decoder_loss,loss,val_capsnet_accuracy,val_capsnet_loss,val_decoder_loss,val_loss
0,0.020645646,0.8094309,0.058472387,0.8323520728059717,0.019696969538927078,0.8094304800033569,0.05480566620826721,0.8309147108684887
1,0.021460844,0.8094309,0.043412596,0.8264762454004173,0.027272727340459824,0.8094304800033569,0.05480566620826721,0.8309147108684887
2,0.028990963,0.8094309,0.04345375,0.8265004479382412,0.03181818127632141,0.8094295859336853,0.05480566620826721,0.8309137875383551
3,0.01995482,0.87141234,0.035864934,0.8856189769793705,0.007575757801532745,1.1174964904785156,0.05480566620826721,1.1389802900227632
4,0.01995482,0.89425915,0.045384098,0.9115961894213435,0.00909090880304575,0.9664391279220581,0.05480566620826721,0.9879229545593262
5,0.019201808,0.84155244,0.041082017,0.8573934647692255,0.020454544574022293,0.8645578622817993,0.05480566620826721,0.8860417886213823
6,0.021084337,0.8245631,0.034983803,0.8376691257020077,0.02348484843969345,0.8617194890975952,0.05480566620826721,0.8832032604651018
7,0.022590362,0.8110204,0.046684958,0.8283398835414864,0.014393939636647701,0.9038174748420715,0.05480566620826721,0.9253013665025884
8,0.024472892,0.8541052,0.03619999,0.8685159826853189,0.010606060735881329,0.8715639710426331,0.05480566620826721,0.8930477326566523
9,0.01995482,0.7969308,0.039681636,0.812642922063908,0.015909090638160706,0.81902676820755,0.05480566620826721,0.8405104192820463
10,0.02070783,0.7861688,0.03762839,0.8006809307150093,0.015909090638160706,0.8111198544502258,0.05480566620826721,0.8326035737991333
11,0.016942771,0.7750434,0.039267365,0.7905256074954228,0.021969696506857872,0.8064370155334473,0.05480566620826721,0.8279207771474665
12,0.021460844,0.77735627,0.038092546,0.7918217961328575,0.018939394503831863,0.811346173286438,0.05480566620826721,0.8328298059376803
13,0.015436747,0.76718676,0.030893946,0.7793124215789589,0.013636363670229912,0.8010439276695251,0.05480566620826721,0.8225276264277371
14,0.019201808,0.77476597,0.051716704,0.7952632792742855,0.02500000037252903,0.7907595038414001,0.05480566620826721,0.8122432632879777
15,0.02183735,0.77051705,0.04120966,0.7868762551301933,0.019696969538927078,0.8025011420249939,0.05480566620826721,0.8239849925041198
16,0.02070783,0.76905954,0.03933395,0.7844833272049226,0.017424242570996284,0.7896767854690552,0.05480566620826721,0.8111606944691051
17,0.021460844,0.76451874,0.03202943,0.7770347236150719,0.0181818176060915,0.784491777420044,0.05480566620826721,0.8059756376526572
18,0.02183735,0.76666975,0.035932004,0.7809636905250779,0.019696969538927078,0.7911317944526672,0.05480566620826721,0.8126156481829556
19,0.018825302,0.77067393,0.045157492,0.7884470441614289,0.018939394503831863,0.789942741394043,0.05480566620826721,0.811426643891768
20,0.018448794,0.7683434,0.034733467,0.7821571406829788,0.0181818176060915,0.7916204929351807,0.05480566620826721,0.8131043087352406
21,0.018825302,0.7626927,0.041175954,0.7788805749761053,0.017424242570996284,0.7832375764846802,0.05480566620826721,0.8047213814475319
22,0.021460844,0.76846826,0.049303792,0.788054963551372,0.0181818176060915,0.7809634804725647,0.05480566620826721,0.8024473959749395
23,0.015436747,0.76254684,0.04441893,0.7800450736140631,0.018939394503831863,0.7810990214347839,0.05480566620826721,0.8025827993046154
24,0.019578313,0.75739336,0.042365182,0.7740777806345239,0.019696969538927078,0.7803887128829956,0.05480566620826721,0.8018724799156189
25,0.016566265,0.76120764,0.03427268,0.7745944342340332,0.0181818176060915,0.7804964780807495,0.05480566620826721,0.8019804271784696
26,0.022966867,0.76341486,0.04480018,0.7810560166835785,0.017424242570996284,0.7812033295631409,0.05480566620826721,0.802687115019018
27,0.01995482,0.76125866,0.039311998,0.7767668375408793,0.019696969538927078,0.7808659672737122,0.05480566620826721,0.8023498513481834
28,0.02070783,0.766417,0.03742836,0.7812084092433194,0.0181818176060915,0.7806159257888794,0.05480566620826721,0.8020998380400918
29,0.019578313,0.7572077,0.03212792,0.7697997209896524,0.018939394503831863,0.7803853750228882,0.05480566620826721,0.8018692222508517
30,0.018825302,0.760516,0.039294224,0.775807637586651,0.019696969538927078,0.779525876045227,0.05480566620826721,0.8010097817941145
31,0.018072288,0.76320595,0.03202655,0.7756238294294081,0.019696969538927078,0.7797508239746094,0.05480566620826721,0.8012347459793091
32,0.023719879,0.75972706,0.037299298,0.7743856572961233,0.017424242570996284,0.7795472741127014,0.05480566620826721,0.8010309652848677
33,0.011671687,0.7593702,0.043560054,0.7765669005821987,0.019696969538927078,0.7794747948646545,0.05480566620826721,0.8009586149995978
34,0.018448794,0.75978833,0.03037422,0.7717705819621143,0.021969696506857872,0.7791429758071899,0.05480566620826721,0.8006268165328286
35,0.021084337,0.76353765,0.03970247,0.7793072009661112,0.019696969538927078,0.7789671421051025,0.05480566620826721,0.8004509936679494
36,0.024849398,0.7559909,0.039000966,0.7710231280470469,0.01666666753590107,0.7789697051048279,0.05480566620826721,0.8004534103653648
37,0.019201808,0.75736207,0.040929575,0.7734476782112236,0.01666666753590107,0.7787929773330688,0.05480566620826721,0.8002768332307989
38,0.017319277,0.76600516,0.037120175,0.7806097626327032,0.018939394503831863,0.7787362933158875,0.05480566620826721,0.8002201958136125
39,0.01995482,0.75538695,0.036592565,0.7697379519063307,0.018939394503831863,0.7789019346237183,0.05480566620826721,0.8003857482563366
40,0.020331325,0.76190877,0.042328943,0.7777762730796653,0.01666666753590107,0.7785572409629822,0.05480566620826721,0.8000410069118846
41,0.020331325,0.76182914,0.04223381,0.7783410662269018,0.0181818176060915,0.7785800099372864,0.05480566620826721,0.8000638073140924
42,0.023343373,0.75586134,0.044070467,0.7732013963073133,0.01666666753590107,0.7784124612808228,0.05480566620826721,0.7998962163925171
43,0.017319277,0.7604808,0.038315523,0.7754856317517269,0.01666666753590107,0.7784035205841064,0.05480566620826721,0.7998874447562477
44,0.020331325,0.7569115,0.03849597,0.7720592734684427,0.01666666753590107,0.7784950733184814,0.05480566620826721,0.7999790495092218
45,0.022966867,0.76444286,0.045563802,0.7819934950535556,0.01666666753590107,0.7784454226493835,0.05480566620826721,0.799929345737804
46,0.02183735,0.75933826,0.040581938,0.7752844928258873,0.01666666753590107,0.7783505320549011,0.05480566620826721,0.7998344291340221
47,0.022590362,0.7573704,0.043103483,0.7742876022695059,0.01666666753590107,0.7782555818557739,0.05480566620826721,0.7997394995255904
48,0.02070783,0.7571073,0.046629258,0.7754607477101935,0.01666666753590107,0.7782402634620667,0.05480566620826721,0.7997242179783908
49,0.023719879,0.7575868,0.04858621,0.7766723480210247,0.01666666753590107,0.7781755328178406,0.05480566620826721,0.7996592077341946
50,0.021460844,0.7583866,0.03595189,0.7724804634071258,0.01666666753590107,0.7782312035560608,0.05480566620826721,0.7997149261561307
51,0.021084337,0.7634411,0.040039606,0.7793341282620487,0.01666666753590107,0.7782896757125854,0.05480566620826721,0.7997734449126503
52,0.025225904,0.7615412,0.030841285,0.772681463554681,0.01666666753590107,0.7783082723617554,0.05480566620826721,0.7997921044176275
53,0.021084337,0.7601339,0.0415558,0.7764917744929531,0.01666666753590107,0.7783197164535522,0.05480566620826721,0.7998035300861706
54,0.024849398,0.75552493,0.041637935,0.7719090455267803,0.01666666753590107,0.7783922553062439,0.05480566620826721,0.7998761610551314
55,0.01995482,0.7597715,0.03517585,0.7735060677829996,0.01666666753590107,0.7783287763595581,0.05480566620826721,0.7998126181689176
56,0.022213856,0.7571671,0.036765825,0.7716783847076347,0.01666666753590107,0.7783180475234985,0.05480566620826721,0.7998019283468073
57,0.026355421,0.75902003,0.037810553,0.7738642468150839,0.01666666753590107,0.7782915830612183,0.05480566620826721,0.7997754573822021
58,0.019578313,0.7608957,0.04356865,0.7780226438519466,0.01666666753590107,0.7782673835754395,0.05480566620826721,0.7997512177987532
59,0.02070783,0.7549729,0.03429951,0.7684249938970589,0.01666666753590107,0.778274416923523,0.05480566620826721,0.7997582153840499
60,0.024096385,0.7574414,0.04157102,0.7738531427570137,0.01666666753590107,0.7782731652259827,0.05480566620826721,0.799756949598139
61,0.022966867,0.7616837,0.03389244,0.7749295078487282,0.01666666753590107,0.7782449126243591,0.05480566620826721,0.7997287836941805
62,0.022213856,0.7573543,0.044528324,0.7748180792992374,0.01666666753590107,0.7782106995582581,0.05480566620826721,0.7996943322095004
63,0.022590362,0.7574309,0.039360803,0.7730277485876198,0.01666666753590107,0.778238832950592,0.05480566620826721,0.7997226899320429
64,0.024096385,0.7593398,0.036880616,0.7739363808229746,0.01666666753590107,0.7782415151596069,0.05480566620826721,0.7997255065224388
65,0.021460844,0.75679,0.032497413,0.7695823830653385,0.01666666753590107,0.778230607509613,0.05480566620826721,0.7997143550352617
66,0.024096385,0.7592081,0.03774073,0.7741193055029375,0.01666666753590107,0.7782129645347595,0.05480566620826721,0.7996966914697127
67,0.01995482,0.76216173,0.041896775,0.7786906155118023,0.01666666753590107,0.7782068252563477,0.05480566620826721,0.7996905641122298
68,0.026355421,0.75591266,0.02994152,0.7676555000873934,0.01666666753590107,0.7781964540481567,0.05480566620826721,0.7996804226528514
69,0.02070783,0.7657442,0.03950905,0.7812514981950622,0.01666666753590107,0.7781919836997986,0.05480566620826721,0.7996758255091581
70,0.024472892,0.75806195,0.034893993,0.7719224152794804,0.01666666753590107,0.7781996130943298,0.05480566620826721,0.7996834852478721
71,0.021084337,0.76093644,0.04343237,0.7779976671718689,0.01666666753590107,0.7781888842582703,0.05480566620826721,0.7996726978908886
72,0.024472892,0.7589523,0.034561034,0.7726108896804144,0.01666666753590107,0.7781825065612793,0.05480566620826721,0.7996663906357505
73,0.023719879,0.7600942,0.043470483,0.7762018456516495,0.01666666753590107,0.7781712412834167,0.05480566620826721,0.7996550830927762
74,0.021084337,0.75791806,0.046842735,0.7763140057942953,0.01666666753590107,0.7781680822372437,0.05480566620826721,0.7996518330140547
75,0.022590362,0.75948304,0.039279677,0.7737818502159004,0.01666666753590107,0.7781615257263184,0.05480566620826721,0.7996453805403276
76,0.024472892,0.7572436,0.03670589,0.771739495267351,0.01666666753590107,0.7781656980514526,0.05480566620826721,0.7996495073491877
77,0.022213856,0.7611002,0.060224835,0.7848097760993314,0.01666666753590107,0.7781646251678467,0.05480566620826721,0.7996484767306935
78,0.022966867,0.75898606,0.037660774,0.773762959852276,0.01666666753590107,0.7781668901443481,0.05480566620826721,0.7996507850560275
79,0.024096385,0.75499415,0.04242536,0.7715169054916106,0.01666666753590107,0.7781665325164795,0.05480566620826721,0.799650414423509
80,0.022966867,0.7572708,0.03853456,0.7723955806479397,0.01666666753590107,0.7781682014465332,0.05480566620826721,0.7996522090651772
81,0.021084337,0.76392955,0.0385815,0.779023436178644,0.01666666753590107,0.7781614661216736,0.05480566620826721,0.7996453718705611
82,0.02183735,0.7575854,0.032393783,0.7703332405492483,0.01666666753590107,0.77815842628479,0.05480566620826721,0.7996423634615811
83,0.023343373,0.76260155,0.039167088,0.7780450024159558,0.01666666753590107,0.7781544923782349,0.05480566620826721,0.7996383666992187
84,0.023343373,0.7568305,0.0353674,0.7707883956202541,0.01666666753590107,0.7781559824943542,0.05480566620826721,0.7996398156339471
85,0.024849398,0.7661613,0.045043092,0.7838403657976404,0.01666666753590107,0.7781545519828796,0.05480566620826721,0.7996383287689902
86,0.02183735,0.7563177,0.04922114,0.7746343517518905,0.01666666753590107,0.7781557440757751,0.05480566620826721,0.7996396574107083
87,0.02183735,0.7576192,0.032140095,0.7701903500829834,0.01666666753590107,0.7781542539596558,0.05480566620826721,0.7996380264108831
88,0.023719879,0.7625643,0.045690022,0.7806553118918316,0.01666666753590107,0.7781524062156677,0.05480566620826721,0.7996361483227122
89,0.023719879,0.75565284,0.029046265,0.7668863420026848,0.01666666753590107,0.7781511545181274,0.05480566620826721,0.7996348716995932
90,0.022590362,0.75783676,0.03718539,0.7724760343511421,0.01666666753590107,0.7781519889831543,0.05480566620826721,0.7996357278390365
91,0.022966867,0.76258844,0.040023904,0.7780973343964083,0.01666666753590107,0.7781546115875244,0.05480566620826721,0.7996384013782848
92,0.022213856,0.75758535,0.0397633,0.7731630351529064,0.01666666753590107,0.7781544327735901,0.05480566620826721,0.7996380578387867
93,0.021460844,0.76084685,0.038179193,0.7759455431656666,0.01666666753590107,0.7781544327735901,0.05480566620826721,0.7996381033550609
94,0.022213856,0.75723463,0.034861717,0.7709014155419476,0.01666666753590107,0.7781550288200378,0.05480566620826721,0.7996388402852145
95,0.023719879,0.76234716,0.04607033,0.7804195608001158,0.01666666753590107,0.7781558036804199,0.05480566620826721,0.7996395750479265
96,0.022590362,0.75454545,0.036975767,0.7690095188746969,0.01666666753590107,0.7781557440757751,0.05480566620826721,0.7996394710107283
97,0.019201808,0.761455,0.03992384,0.7772995596190533,0.01666666753590107,0.7781548500061035,0.05480566620826721,0.799638540094549
98,0.025225904,0.76020813,0.043761197,0.7773830727281341,0.01666666753590107,0.7781546711921692,0.05480566620826721,0.7996385357596657
99,0.023343373,0.7637429,0.043841142,0.7811846490724977,0.01666666753590107,0.7781546115875244,0.05480566620826721,0.7996385097503662
